@startuml
skinparam linetype ortho
hide empty members

entity "locutors.Locutor" << (M,#ff7700) Model >> {
  * <u>id</u>
  * name
  * gender
  * place_of_residence
  * is_main_locutor
  * license
}

entity "locutors.UsesLanguage" << (M,#ff7700) Model >> {
  * <u>id</u>
  * language_qid
  * proficiency
  * place_of_learning
}

entity "user_profile.User" << (M,#ff7700) Model >> {
  * <u>id</u>
  * username
  * last_login
  * date_joined
  * is_staff
  * is_superuser
  * groups
}

entity "social_django.UserSocialAuth" << (M,#ff7700) Model >> {
  * <u>id</u>
  * provider
  * uid
} 
note bottom of "UserSocialAuth"
  Provided by the 3rd-party Django app
  handling the OAuth authentication:
  social-auth-app-django.
end note

entity "upload_batches.Recording" << (M,#ff7700) Model >> {
  * <u>id</u>
  * file
  * transcription
  * state
}

entity "upload_batches.UploadBatch" << (M,#ff7700) Model >> {
  * <u>id</u>
  * language_qid
  * created_time
  * started_time
  * finished_time
}

Locutor "*" -- "1" UsesLanguage: locutor_id

User "*" -- "1" Locutor: linked_user_id
UserSocialAuth "1" -right- "1" User

Locutor "*" -- "1" UploadBatch: locutor_id

UploadBatch "*" -- "1" Recording: batch_id
@enduml